<svg width="77" height="77" viewBox="0 0 77 77" fill="none" xmlns="http://www.w3.org/2000/svg">
<g clip-path="url(#clip0_1149_4417)">
<path d="M77 0H0V77H77V0Z" fill="white"/>
<path d="M46.8362 59.4517V70.4001H44.1969V59.4517H46.8362ZM50.1299 59.4517V61.4894H40.9785V59.4517H50.1299ZM55.595 59.4517V70.4001H52.9631V59.4517H55.595ZM60.3008 59.4517H62.4513L64.8952 67.0689L67.339 59.4517H69.4896L65.7675 70.4001H64.0229L60.3008 59.4517ZM58.9923 59.4517H61.2181L61.6317 67.8434V70.4001H58.9923V59.4517ZM68.5722 59.4517H70.8056V70.4001H68.1586V67.8434L68.5722 59.4517Z" fill="#0B2577"/>
</g>
<defs>
<clipPath id="clip0_1149_4417">
<rect width="77" height="77" fill="white"/>
</clipPath>
</defs>
</svg>
